^E:\DOCUMENTS\2.CEEC\CNC\HEADLESS CNC\GCODE2HCODE\V1\GCODE2HCODE\GCODE2HCODE\DEBUG\GCODE2HCODE.RES|E:\DOCUMENTS\2.CEEC\CNC\HEADLESS CNC\GCODE2HCODE\V1\GCODE2HCODE\GCODE2HCODE\DEBUG\GCODE_HANDLING.OBJ|E:\DOCUMENTS\2.CEEC\CNC\HEADLESS CNC\GCODE2HCODE\V1\GCODE2HCODE\GCODE2HCODE\DEBUG\HCODE_HANDLING.OBJ|E:\DOCUMENTS\2.CEEC\CNC\HEADLESS CNC\GCODE2HCODE\V1\GCODE2HCODE\GCODE2HCODE\DEBUG\MAIN.OBJ|E:\DOCUMENTS\2.CEEC\CNC\HEADLESS CNC\GCODE2HCODE\V1\GCODE2HCODE\GCODE2HCODE\DEBUG\MOTOR_PARAM.OBJ
E:\DOCUMENTS\2.CEEC\CNC\HEADLESS CNC\GCODE2HCODE\V1\GCODE2HCODE\DEBUG\GCODE2HCODE.ILK
E:\DOCUMENTS\2.CEEC\CNC\HEADLESS CNC\GCODE2HCODE\V1\GCODE2HCODE\DEBUG\GCODE2HCODE.EXE
E:\DOCUMENTS\2.CEEC\CNC\HEADLESS CNC\GCODE2HCODE\V1\GCODE2HCODE\DEBUG\GCODE2HCODE.PDB
