^E:\DOCUMENTS\2.CEEC\CNC\HEADLESS CNC\GCODE2HCODE\V1\GCODE2HCODE\GCODE2HCODE\GCODE2HCODE.RC
E:\DOCUMENTS\2.CEEC\CNC\HEADLESS CNC\GCODE2HCODE\V1\GCODE2HCODE\GCODE2HCODE\RESOURCE.H
C:\PROGRAM FILES (X86)\WINDOWS KITS\8.1\INCLUDE\UM\WINRES.H
C:\PROGRAM FILES (X86)\WINDOWS KITS\8.1\INCLUDE\UM\WINRESRC.H
C:\PROGRAM FILES (X86)\WINDOWS KITS\8.1\INCLUDE\UM\WINUSER.RH
C:\PROGRAM FILES (X86)\WINDOWS KITS\8.1\INCLUDE\UM\COMMCTRL.RH
C:\PROGRAM FILES (X86)\WINDOWS KITS\8.1\INCLUDE\UM\DDE.RH
C:\PROGRAM FILES (X86)\WINDOWS KITS\8.1\INCLUDE\UM\WINNT.RH
C:\PROGRAM FILES (X86)\WINDOWS KITS\8.1\INCLUDE\UM\DLGS.H
C:\PROGRAM FILES (X86)\WINDOWS KITS\8.1\INCLUDE\SHARED\WINAPIFAMILY.H
C:\PROGRAM FILES (X86)\WINDOWS KITS\8.1\INCLUDE\UM\WINVER.H
C:\PROGRAM FILES (X86)\WINDOWS KITS\8.1\INCLUDE\SHARED\SPECSTRINGS.H
C:\PROGRAM FILES (X86)\MICROSOFT VISUAL STUDIO 14.0\VC\INCLUDE\SAL.H
C:\PROGRAM FILES (X86)\MICROSOFT VISUAL STUDIO 14.0\VC\INCLUDE\CONCURRENCYSAL.H
C:\PROGRAM FILES (X86)\WINDOWS KITS\8.1\INCLUDE\SHARED\DRIVERSPECS.H
C:\PROGRAM FILES (X86)\WINDOWS KITS\8.1\INCLUDE\SHARED\SDV_DRIVERSPECS.H
C:\PROGRAM FILES (X86)\WINDOWS KITS\8.1\INCLUDE\UM\VERRSRC.H
